UserId,Tag
241990,spring-security
103154,spring-security
618087,spring-security
280244,spring-security
1259109,spring-security
1677948,spring-security
1276804,spring-security
139985,spring-security
2696260,spring-security
1463522,spring-security
708434,spring-security
3510410,spring-security
4249,spring-security
158658,spring-security
