UserId,Tag
22656,generics
697449,generics
1707091,generics
1679863,generics
438154,generics
869736,generics
571407,generics
228171,generics
203907,generics
276052,generics
829571,generics
13792,generics
2891664,generics
1103872,generics
774444,generics
1003142,generics
34397,generics
3474,generics
335858,generics
40342,generics
103154,generics
637853,generics
157882,generics
14955,generics
265143,generics
2711488,generics
276101,generics
1065197,generics
1357341,generics
978917,generics
1393766,generics
592139,generics
139010,generics
680925,generics
3182664,generics
1081110,generics
331052,generics
20394,generics
13,generics
367273,generics
758280,generics
41655,generics
1221571,generics
1034737,generics
128397,generics
13531,generics
552759,generics
315306,generics
521799,generics
27198,generics
1079354,generics
