UserId,Tag
1836,junit
571407,junit
22656,junit
2326914,junit
438154,junit
605744,junit
34088,junit
474189,junit
70604,junit
1426891,junit
342852,junit
265143,junit
139985,junit
1831293,junit
48136,junit
84889,junit
829571,junit
103154,junit
1079354,junit
2422776,junit
