UserId,Tag
179850,concurrency
192444,concurrency
829571,concurrency
571407,concurrency
22656,concurrency
103154,concurrency
522444,concurrency
992484,concurrency
3474,concurrency
2711488,concurrency
276052,concurrency
331052,concurrency
1827903,concurrency
122207,concurrency
183406,concurrency
21234,concurrency
2071828,concurrency
230513,concurrency
14955,concurrency
